…
<img src="fig/visualize-categorical-categorical-1.png" title="plot of chunk visualize-categorical-categorical" alt="plot of chunk visualize-categorical-categorical" style="display: block; margin: auto;" />

혹은, `dplyr` 팩키지 `count()` 함수를 사용해서 먼저 두 범주형 변수간에 빈도를 구하고 나서,
이를 `geom_tile()` 함수를 사용해서 시각화한다.


~~~{.r}
diamonds %>% 
  count(color, cut)
~~~



~~~{.output}
Source: local data frame [35 x 3]
Groups: color [?]

   color       cut     n
   <ord>     <ord> <int>
1      D      Fair   163
2      D      Good   662
3      D Very Good  1513
4      D   Premium  1603
5      D     Ideal  2834
6      E      Fair   224
7      E      Good   933
8      E Very Good  2400
9      E   Premium  2337
10     E     Ideal  3903
# ... with 25 more rows
…
